{
  "project_info": {
    "project_number": "189374871750",
    "firebase_url": "https://lab4-9f8f8.firebaseio.com",
    "project_id": "lab4-9f8f8",
    "storage_bucket": "lab4-9f8f8.appspot.com"
  },
  "client": [
    {
      "client_info": {
        "mobilesdk_app_id": "1:189374871750:android:a0f31cfee7e2545d",
        "android_client_info": {
          "package_name": "com.example.cbk12.lab4"
        }
      },
      "oauth_client": [
        {
          "client_id": "189374871750-7h4l1s507t3teq5gk4m51oj6r4oef07u.apps.googleusercontent.com",
          "client_type": 1,
          "android_info": {
            "package_name": "com.example.cbk12.lab4",
            "certificate_hash": "94e608d7440b7b85c776fe82d1aa1704d5f749e3"
          }
        },
        {
          "client_id": "189374871750-bf7bk5tbh4ig81gjr95br30lc3f8bc3q.apps.googleusercontent.com",
          "client_type": 3
        }
      ],
      "api_key": [
        {
          "current_key": "AIzaSyB-RpjLjnDDZ8AxRyYzNt_bHtGhPIAhQ2Q"
        }
      ],
      "services": {
        "analytics_service": {
          "status": 1
        },
        "appinvite_service": {
          "status": 2,
          "other_platform_oauth_client": [
            {
              "client_id": "189374871750-bf7bk5tbh4ig81gjr95br30lc3f8bc3q.apps.googleusercontent.com",
              "client_type": 3
            }
          ]
        },
        "ads_service": {
          "status": 2
        }
      }
    }
  ],
  "configuration_version": "1"
}